<svg width="8" height="17" viewBox="0 0 8 17" fill="none" xmlns="http://www.w3.org/2000/svg">
<g opacity="0.8">
<path fill-rule="evenodd" clip-rule="evenodd" d="M4.85007 16.3303V8.34764H7.00787L7.29382 5.59676H4.85007L4.85374 4.21992C4.85374 3.50245 4.92049 3.11801 5.92958 3.11801H7.27855V0.366821H5.12045C2.52822 0.366821 1.61583 1.70129 1.61583 3.94545V5.59707H0V8.34795H1.61583V16.3303H4.85007Z" fill="#9A9AAD"/>
</g>
</svg>
